<?xml version="1.0" encoding="UTF-8" standalone="no"?>
<!-- Created with Inkscape (http://www.inkscape.org/) -->

<svg
        xmlns:dc="http://purl.org/dc/elements/1.1/"
        xmlns:cc="http://creativecommons.org/ns#"
        xmlns:rdf="http://www.w3.org/1999/02/22-rdf-syntax-ns#"
        xmlns:svg="http://www.w3.org/2000/svg"
        xmlns="http://www.w3.org/2000/svg"
        xmlns:sodipodi="http://sodipodi.sourceforge.net/DTD/sodipodi-0.dtd"
        xmlns:inkscape="http://www.inkscape.org/namespaces/inkscape"
        id="svg2"
        version="1.1"
        inkscape:version="0.92.0 r"
        xml:space="preserve"
        width="519.47101"
        height="160.44438"
        viewBox="0 0 519.47098 160.44438"
        sodipodi:docname="Equitativa Group Logo - v2016-1.svg"><metadata
     id="metadata8"><rdf:RDF><cc:Work
         rdf:about=""><dc:format>image/svg+xml</dc:format><dc:type
        rdf:resource="http://purl.org/dc/dcmitype/StillImage" /><dc:title /></cc:Work></rdf:RDF></metadata>
    <defs
            id="defs6"><clipPath
       clipPathUnits="userSpaceOnUse"
       id="clipPath28"><path
         d="m 0,595.28 841.89,0 L 841.89,0 0,0 0,595.28 Z"
         id="path30"
         inkscape:connector-curvature="0" /></clipPath>
        <clipPath
                clipPathUnits="userSpaceOnUse"
                id="clipPath56"><path
         d="m 0,595.28 841.89,0 L 841.89,0 0,0 0,595.28 Z"
         id="path58"
         inkscape:connector-curvature="0" /></clipPath>
        <clipPath
                clipPathUnits="userSpaceOnUse"
                id="clipPath154"><path
         d="m 0,595.28 841.89,0 L 841.89,0 0,0 0,595.28 Z"
         id="path156"
         inkscape:connector-curvature="0" /></clipPath>
        <clipPath
                clipPathUnits="userSpaceOnUse"
                id="clipPath170"><path
         d="m 0,595.28 841.89,0 L 841.89,0 0,0 0,595.28 Z"
         id="path172"
         inkscape:connector-curvature="0" /></clipPath>
        <clipPath
                clipPathUnits="userSpaceOnUse"
                id="clipPath186"><path
         d="m 0,595.28 841.89,0 L 841.89,0 0,0 0,595.28 Z"
         id="path188"
         inkscape:connector-curvature="0" /></clipPath></defs>
    <sodipodi:namedview
            pagecolor="#ffffff"
            bordercolor="#666666"
            borderopacity="1"
            objecttolerance="10"
            gridtolerance="10"
            guidetolerance="10"
            inkscape:pageopacity="0"
            inkscape:pageshadow="2"
            inkscape:window-width="2659"
            inkscape:window-height="2096"
            id="namedview4"
            showgrid="false"
            inkscape:zoom="2.5996438"
            inkscape:cx="298.04871"
            inkscape:cy="-44.48233"
            inkscape:window-x="4723"
            inkscape:window-y="62"
            inkscape:window-maximized="0"
            inkscape:current-layer="g54"
            fit-margin-top="0"
            fit-margin-left="0"
            fit-margin-right="0"
            fit-margin-bottom="0" />
    <g
            id="g10"
            inkscape:groupmode="layer"
            inkscape:label="ER_Equitativa_Logo_KY_V2"
            transform="matrix(1.25,0,0,-1.25,-266.44587,452.2715)"><g
       id="g24"><g
         id="g26"
         clip-path="url(#clipPath28)" /></g>
        <g
                id="g52"><g
         id="g54"
         clip-path="url(#clipPath56)"><g
           id="g60"
           transform="translate(573.8447,330.1865)"><path
             d="m 0,0 c -3.443,-3.855 -9.372,-5.543 -9.372,-5.543 l -1.164,1.619 c 2.212,2.031 1.836,5.02 1.836,5.02 -1.552,5.341 -10.327,5.318 -10.327,5.318 -6.88,-0.008 -13.927,-2.268 -20.375,-4.625 -10.926,-3.992 -20.605,-10.562 -30.794,-16.035 -10.872,-5.842 -22.806,-9.262 -35.201,-9.135 -7.279,0.074 -14.561,0.02 -21.841,0.02 l 0,1.021 c 9.31,1.338 18.566,3.235 27.541,6.078 28.35,8.979 51.333,33.09 82.389,32.891 C -9.144,16.576 -5.681,14.156 -4.51,13.494 0.511,10.66 1.343,5.461 1.343,5.461 1.343,5.461 2.191,2.49 0,0"
             style="fill:#a28b64;fill-opacity:1;fill-rule:nonzero;stroke:none"
             id="path62"
             inkscape:connector-curvature="0" /></g><g
                id="g64"
                transform="translate(499.4243,241.1221)"
                style="fill:#a28b64;fill-opacity:1"><path
             d="m 0,0 c 0.093,0.012 0.207,0.023 0.34,0.029 0.133,0.006 0.253,0.01 0.36,0.01 0.12,0 0.24,-0.004 0.36,-0.01 C 1.18,0.023 1.287,0.012 1.38,0 l 0,-7 C 1.153,-7.121 0.883,-7.221 0.57,-7.301 c -0.314,-0.08 -0.647,-0.146 -1,-0.199 -0.354,-0.055 -0.717,-0.094 -1.09,-0.121 -0.374,-0.025 -0.74,-0.039 -1.1,-0.039 -0.96,0 -1.854,0.152 -2.68,0.459 -0.827,0.306 -1.54,0.767 -2.14,1.381 -0.6,0.613 -1.07,1.373 -1.41,2.279 -0.34,0.906 -0.51,1.961 -0.51,3.16 0,1.201 0.167,2.27 0.5,3.211 0.333,0.94 0.797,1.732 1.39,2.379 0.593,0.646 1.293,1.141 2.1,1.48 0.807,0.34 1.683,0.51 2.63,0.51 0.84,0 1.54,-0.056 2.1,-0.17 C -0.08,6.916 0.373,6.807 0.72,6.699 0.693,6.459 0.656,6.252 0.61,6.08 0.563,5.906 0.493,5.705 0.4,5.479 c -0.294,0.107 -0.687,0.216 -1.18,0.33 -0.493,0.113 -1.12,0.17 -1.88,0.17 -0.76,0 -1.46,-0.143 -2.1,-0.43 -0.64,-0.287 -1.19,-0.703 -1.65,-1.25 -0.46,-0.547 -0.82,-1.213 -1.08,-2 -0.26,-0.787 -0.39,-1.68 -0.39,-2.68 0,-1.027 0.14,-1.916 0.42,-2.67 0.28,-0.754 0.66,-1.377 1.14,-1.869 0.48,-0.494 1.043,-0.861 1.69,-1.101 0.647,-0.239 1.337,-0.36 2.07,-0.36 0.6,0 1.103,0.024 1.51,0.07 0.406,0.047 0.757,0.124 1.05,0.231 L 0,0 Z"
             style="fill:#a28b64;fill-opacity:1;fill-rule:nonzero;stroke:none"
             id="path66"
             inkscape:connector-curvature="0" /></g><g
                id="g68"
                transform="translate(506.084,248.1416)"
                style="fill:#a28b64;fill-opacity:1"><path
             d="m 0,0 c 0.293,0.027 0.55,0.051 0.77,0.07 0.22,0.02 0.433,0.039 0.64,0.059 0.207,0.021 0.423,0.033 0.65,0.041 0.227,0.006 0.493,0.01 0.8,0.01 0.64,0 1.27,-0.067 1.89,-0.2 0.62,-0.134 1.177,-0.363 1.67,-0.691 0.493,-0.326 0.89,-0.766 1.19,-1.318 0.3,-0.555 0.45,-1.25 0.45,-2.092 0,-0.52 -0.094,-0.992 -0.28,-1.42 C 7.593,-5.967 7.35,-6.35 7.05,-6.689 6.75,-7.029 6.403,-7.324 6.01,-7.57 5.617,-7.816 5.213,-8.02 4.8,-8.18 L 4.64,-8.24 9.22,-14.439 C 9.086,-14.467 8.953,-14.48 8.82,-14.48 l -0.4,0 -0.39,0 c -0.127,0 -0.257,0.013 -0.39,0.041 l -5.04,6.66 0,0.08 0.44,0.119 c 0.453,0.119 0.893,0.277 1.32,0.471 0.427,0.191 0.803,0.425 1.13,0.699 0.326,0.273 0.59,0.596 0.79,0.971 0.2,0.373 0.3,0.812 0.3,1.318 0,1.041 -0.32,1.82 -0.96,2.342 C 4.98,-1.26 4.113,-1 3.02,-1 2.74,-1 2.48,-1.008 2.24,-1.02 2,-1.033 1.713,-1.061 1.38,-1.1 l 0,-13.339 c -0.093,-0.014 -0.207,-0.024 -0.34,-0.032 -0.133,-0.006 -0.253,-0.009 -0.36,-0.009 -0.12,0 -0.24,0.003 -0.36,0.009 -0.12,0.008 -0.227,0.018 -0.32,0.032 L 0,0 Z"
             style="fill:#a28b64;fill-opacity:1;fill-rule:nonzero;stroke:none"
             id="path70"
             inkscape:connector-curvature="0" /></g><g
                id="g72"
                transform="translate(524.124,234.7217)"
                style="fill:#a28b64;fill-opacity:1"><path
             d="M 0,0 C 0.773,0 1.44,0.15 2,0.449 2.56,0.75 3.026,1.174 3.4,1.721 3.773,2.266 4.05,2.92 4.23,3.68 4.41,4.439 4.5,5.273 4.5,6.18 4.5,7.086 4.41,7.92 4.23,8.68 4.05,9.439 3.773,10.09 3.4,10.629 3.026,11.17 2.56,11.59 2,11.891 1.44,12.189 0.773,12.34 0,12.34 -0.773,12.34 -1.444,12.189 -2.01,11.891 -2.577,11.59 -3.043,11.17 -3.41,10.629 -3.777,10.09 -4.05,9.439 -4.23,8.68 -4.41,7.92 -4.5,7.086 -4.5,6.18 -4.5,5.273 -4.41,4.439 -4.23,3.68 -4.05,2.92 -3.777,2.266 -3.41,1.721 -3.043,1.174 -2.577,0.75 -2.01,0.449 -1.444,0.15 -0.773,0 0,0 m 0,-1.26 c -1,0 -1.874,0.184 -2.62,0.549 -0.747,0.367 -1.364,0.881 -1.85,1.541 -0.487,0.66 -0.854,1.445 -1.1,2.359 -0.247,0.915 -0.37,1.911 -0.37,2.991 0,1.08 0.123,2.072 0.37,2.98 0.246,0.906 0.613,1.69 1.1,2.35 0.486,0.66 1.103,1.174 1.85,1.539 C -1.874,13.416 -1,13.6 0,13.6 1,13.6 1.873,13.416 2.62,13.049 3.366,12.684 3.983,12.17 4.47,11.51 4.957,10.85 5.323,10.066 5.57,9.16 5.816,8.252 5.94,7.26 5.94,6.18 5.94,5.1 5.816,4.104 5.57,3.189 5.323,2.275 4.957,1.49 4.47,0.83 3.983,0.17 3.366,-0.344 2.62,-0.711 1.873,-1.076 1,-1.26 0,-1.26"
             style="fill:#a28b64;fill-opacity:1;fill-rule:nonzero;stroke:none"
             id="path74"
             inkscape:connector-curvature="0" /></g><g
                id="g76"
                transform="translate(534.7036,248.0811)"
                style="fill:#a28b64;fill-opacity:1"><path
             d="m 0,0 c 0.093,0.014 0.207,0.023 0.34,0.031 0.133,0.006 0.253,0.01 0.36,0.01 0.12,0 0.24,-0.004 0.36,-0.01 C 1.18,0.023 1.287,0.014 1.38,0 l 0,-8.68 c 0,-0.84 0.07,-1.55 0.21,-2.131 0.14,-0.578 0.353,-1.056 0.64,-1.429 0.287,-0.373 0.65,-0.643 1.09,-0.809 0.44,-0.168 0.967,-0.25 1.58,-0.25 1.213,0 2.103,0.352 2.67,1.059 0.567,0.707 0.85,1.894 0.85,3.56 l 0,8.68 c 0.093,0.014 0.2,0.023 0.32,0.031 0.12,0.006 0.24,0.01 0.36,0.01 0.107,0 0.227,-0.004 0.36,-0.01 C 9.593,0.023 9.707,0.014 9.8,0 l 0,-8.859 c 0,-1.92 -0.393,-3.36 -1.18,-4.321 -0.787,-0.959 -2.027,-1.439 -3.72,-1.439 -1.693,0 -2.933,0.48 -3.72,1.439 C 0.393,-12.219 0,-10.779 0,-8.859 L 0,0 Z"
             style="fill:#a28b64;fill-opacity:1;fill-rule:nonzero;stroke:none"
             id="path78"
             inkscape:connector-curvature="0" /></g><g
                id="g80"
                transform="translate(551.2632,240.6221)"
                style="fill:#a28b64;fill-opacity:1"><path
             d="m 0,0 c 0.133,-0.014 0.25,-0.023 0.35,-0.031 0.1,-0.006 0.2,-0.014 0.3,-0.02 0.1,-0.006 0.213,-0.013 0.34,-0.019 0.127,-0.008 0.29,-0.01 0.49,-0.01 0.48,0 0.953,0.039 1.42,0.119 0.467,0.08 0.89,0.244 1.27,0.49 C 4.55,0.775 4.856,1.123 5.09,1.57 5.323,2.016 5.44,2.605 5.44,3.34 5.44,3.926 5.35,4.416 5.17,4.809 4.99,5.203 4.733,5.52 4.4,5.76 4.067,6 3.66,6.172 3.18,6.279 2.7,6.387 2.167,6.439 1.58,6.439 1.233,6.439 0.927,6.43 0.66,6.41 0.393,6.389 0.173,6.365 0,6.34 L 0,0 Z m -1.38,7.459 c 0.133,0.014 0.32,0.037 0.56,0.07 0.24,0.033 0.503,0.061 0.79,0.08 0.287,0.02 0.58,0.039 0.88,0.061 0.3,0.019 0.57,0.029 0.81,0.029 0.787,0 1.5,-0.08 2.14,-0.24 C 4.44,7.299 4.99,7.047 5.45,6.699 5.91,6.352 6.267,5.902 6.52,5.35 6.773,4.797 6.9,4.125 6.9,3.34 6.9,2.5 6.757,1.779 6.47,1.18 6.183,0.58 5.797,0.092 5.31,-0.281 4.823,-0.654 4.257,-0.928 3.61,-1.102 2.963,-1.273 2.287,-1.361 1.58,-1.361 1.273,-1.361 1.007,-1.354 0.78,-1.34 0.553,-1.328 0.293,-1.307 0,-1.281 L 0,-6.92 c -0.093,-0.014 -0.2,-0.023 -0.32,-0.031 -0.12,-0.006 -0.24,-0.01 -0.36,-0.01 -0.133,0 -0.263,0.004 -0.39,0.01 -0.127,0.008 -0.23,0.017 -0.31,0.031 l 0,14.379 z"
             style="fill:#a28b64;fill-opacity:1;fill-rule:nonzero;stroke:none"
             id="path82"
             inkscape:connector-curvature="0" /></g><g
                id="g84"
                transform="translate(355.3965,299.7217)"><path
             d="m 0,0 -8.991,0 0,-0.807 c 0.421,-0.015 1.062,-0.078 1.649,-0.195 1.269,-0.269 1.736,-1.137 1.869,-3.074 0.132,-1.803 0.132,-39.094 0.132,-39.094 l 5.343,0 L 0,0 Z"
             style="fill:#3c3c3b;fill-opacity:1;fill-rule:nonzero;stroke:none"
             id="path86"
             inkscape:connector-curvature="0" /></g><g
                id="g88"
                transform="translate(474.4209,299.7217)"><path
             d="m 0,0 -8.991,0 0,-0.807 c 0.419,-0.015 1.063,-0.078 1.649,-0.195 1.27,-0.269 1.737,-1.137 1.87,-3.074 0.132,-1.803 0.132,-39.094 0.132,-39.094 l 5.343,0 L 0,0 Z"
             style="fill:#3c3c3b;fill-opacity:1;fill-rule:nonzero;stroke:none"
             id="path90"
             inkscape:connector-curvature="0" /></g><g
                id="g92"
                transform="translate(397.6416,299.7217)"><path
             d="m 0,0 -36.356,0 0,-0.137 c 0,0 -0.19,-5.222 -0.163,-6.277 l 0.998,0 c 0.003,0.023 0.003,0.045 0.007,0.068 l 0.068,0.602 c 0.198,1.736 1.466,3.006 7.075,3.14 l 7.339,0.133 0,-40.699 5.344,0 0,40.699 7.341,-0.133 c 5.61,-0.134 6.878,-1.404 7.081,-3.14 l 0.067,-0.602 c 0.002,-0.023 0.004,-0.045 0.004,-0.068 l 1.001,0 c 0.023,1.055 0.196,4.668 0.196,6.277 C 0.002,-0.09 0,0 0,0"
             style="fill:#3c3c3b;fill-opacity:1;fill-rule:nonzero;stroke:none"
             id="path94"
             inkscape:connector-curvature="0" /></g><g
                id="g96"
                transform="translate(460.0918,299.7217)"><path
             d="m 0,0 -36.356,0 0,-0.137 c 0,0 -0.189,-5.222 -0.162,-6.277 l 0.997,0 c 0.004,0.023 0.004,0.045 0.008,0.068 l 0.068,0.602 c 0.196,1.736 1.465,3.006 7.073,3.14 l 7.341,0.133 0,-40.699 5.344,0 0,40.699 7.34,-0.133 c 5.612,-0.134 6.878,-1.404 7.082,-3.14 l 0.064,-0.602 c 0.004,-0.023 0.006,-0.045 0.006,-0.068 l 1.001,0 c 0.023,1.055 0.196,4.668 0.196,6.277 C 0.002,-0.09 0,0 0,0"
             style="fill:#3c3c3b;fill-opacity:1;fill-rule:nonzero;stroke:none"
             id="path98"
             inkscape:connector-curvature="0" /></g><g
                id="g100"
                transform="translate(338.1729,299.7217)"><path
             d="m 0,0 -4.142,0 0,-24.004 c 0,-5.808 -0.597,-10.482 -3.337,-13.754 -2.002,-2.408 -5.474,-4.008 -9.078,-4.008 -3.339,0 -5.878,0.469 -8.749,3.075 -2.538,2.267 -4.337,5.673 -4.337,13.888 L -29.625,0 l -2.818,0 -0.007,0 -0.005,0 -6.159,0 0,-0.846 c 0.37,-0.021 0.727,-0.056 0.956,-0.09 1.937,-0.269 2.27,-1.335 2.405,-3.14 0.133,-1.803 0.133,-3.969 0.133,-12.783 l 0,-8.346 c 0,-8.277 2.27,-12.223 5.142,-14.893 4.139,-3.871 10.283,-4.002 12.217,-4.002 3.472,0 8.011,0.465 12.286,4.135 C -0.804,-35.957 0,-29.078 0,-22.934 L 0,0 Z"
             style="fill:#3c3c3b;fill-opacity:1;fill-rule:nonzero;stroke:none"
             id="path102"
             inkscape:connector-curvature="0" /></g><g
                id="g104"
                transform="translate(524.4902,299.7217)"><path
             d="M 0,0 -4.745,0 -4.75,0 -4.759,0 -7.361,0 c 0,0 -10.472,-28.344 -13.884,-35.957 L -34.871,0 l -2.719,0 -0.006,0 -0.014,0 -7.584,0 0,-0.807 c 0.466,-0.009 1.21,-0.047 1.923,-0.195 1.93,-0.465 2.733,-1.068 4.072,-4.275 l 14.419,-35.356 c 1.132,-2.732 1.537,-3.467 2.202,-3.467 0.602,0 0.934,0.866 2.538,4.27 1.338,2.805 3.944,8.947 7.547,17.228 3.004,6.944 5.874,14.319 6.541,15.924 1.533,3.873 2.471,4.674 3.271,5.211 0.977,0.608 2.175,0.66 2.681,0.662 L 0,0 Z"
             style="fill:#3c3c3b;fill-opacity:1;fill-rule:nonzero;stroke:none"
             id="path106"
             inkscape:connector-curvature="0" /></g><g
                id="g108"
                transform="translate(221.5107,256.5518)"><path
             d="m 0,0 21.405,0 1.223,7.494 -1.149,0 C 21.086,4.945 20.174,3.814 18.434,3.055 16.676,2.369 13.471,2.369 11.72,2.369 c -6.644,0 -9.413,0.838 -9.565,5.19 -0.081,1.302 0,16.484 0,16.484 0,0.23 0.074,0.461 0.452,0.461 1.149,0 9.872,-0.076 11.706,-0.305 2.597,-0.306 3.203,-1.07 3.436,-1.986 0.121,-0.328 0.188,-0.637 0.234,-0.928 l 1.159,0 0.561,5.807 -16.377,0 0,0.008 c -0.394,-0.002 -0.673,-0.002 -0.79,-0.002 -0.381,0 -0.381,0.23 -0.381,0.689 l 0,19.236 c 0,0.459 0.074,0.692 0.381,0.692 0.759,0 11.129,-0.078 12.277,-0.233 3.66,-0.459 4.344,-0.916 4.809,-1.986 0.301,-0.762 0.377,-1.83 0.377,-2.291 0,-0.037 0.005,-0.07 0.007,-0.111 l 1.146,0 0,0.002 -0.276,7.213 -29.23,0 0,-0.944 c 0.551,-0.031 1.154,-0.08 1.5,-0.127 2.212,-0.308 2.595,-1.373 2.746,-3.59 C -3.951,43.592 -3.951,3.727 -3.951,3.727 -3.951,3.727 -3.997,0 0,0"
             style="fill:#3c3c3b;fill-opacity:1;fill-rule:nonzero;stroke:none"
             id="path110"
             inkscape:connector-curvature="0" /></g><g
                id="g112"
                transform="translate(430.9004,257.624)"><path
             d="m 0,0 c -1.27,0.398 -2.871,1.133 -5.008,6.211 -3.604,8.611 -13.019,32.611 -14.087,35.019 -0.601,1.264 -0.801,2.069 -1.403,2.069 -0.398,0 -0.666,-0.334 -1.399,-2.203 L -35.718,5.008 c -1.136,-2.875 -2.536,-5.34 -5.598,-5.34 l 0,-0.74 5.462,0 1.605,0 12.285,34.488 c 0.333,0.867 0.664,0.867 1,0 l 5.804,-16.121 c 0.071,-0.27 0.071,-0.402 -0.196,-0.402 l -8.727,0 -0.82,-2.336 10.416,0 c 0.334,0 0.401,-0.069 0.531,-0.338 l 6.265,-15.291 9.943,0 0,0.736 C 1.654,-0.328 0.828,-0.254 0,0"
             style="fill:#3c3c3b;fill-opacity:1;fill-rule:nonzero;stroke:none"
             id="path114"
             inkscape:connector-curvature="0" /></g><g
                id="g116"
                transform="translate(555.8857,257.624)"><path
             d="m 0,0 c -1.272,0.398 -2.874,1.133 -5.013,6.211 -3.601,8.611 -13.018,32.611 -14.085,35.019 -0.604,1.264 -0.801,2.069 -1.401,2.069 -0.404,0 -0.67,-0.334 -1.407,-2.203 L -35.724,5.008 c -1.135,-2.875 -2.537,-5.34 -5.598,-5.34 l 0,-0.74 7.07,0 12.278,34.488 c 0.339,0.867 0.672,0.867 1.004,0 l 5.809,-16.121 c 0.068,-0.27 0.068,-0.402 -0.198,-0.402 l -8.726,0 -0.819,-2.336 10.413,0 c 0.33,0 0.4,-0.069 0.536,-0.338 l 6.267,-15.291 9.936,0 0,0.736 C 1.654,-0.328 0.823,-0.254 0,0"
             style="fill:#3c3c3b;fill-opacity:1;fill-rule:nonzero;stroke:none"
             id="path118"
             inkscape:connector-curvature="0" /></g><g
                id="g120"
                transform="translate(273.6416,258.2656)"><path
             d="m 0,0 c -10.614,0 -18.563,8.416 -18.563,21.502 0,12.416 7.08,18.49 16.895,18.49 9.279,0 17.628,-7.275 17.628,-20.763 C 15.96,2.871 5.273,0 0,0 m 60.239,-8.418 c -0.111,-0.033 -0.331,-0.143 -0.481,-0.191 -4.071,-1.473 -8.545,-2.209 -11.484,-2.209 -2.94,0 -11.82,0.339 -24.637,6.679 l -12.019,5.94 c 3.872,2.406 10.346,9.082 10.346,19.033 0,13.152 -10.012,21.299 -23.232,21.299 -16.223,0 -23.301,-13.022 -23.301,-22.168 0,-10.213 6.809,-22.299 23.036,-22.299 3.137,0 7.143,0.664 9.276,1.732 l 9.75,-5.275 c 9.481,-5.139 17.158,-7.477 24.304,-7.477 8.679,0 15.355,2.471 18.695,3.94 l -0.253,0.996 z"
             style="fill:#3c3c3b;fill-opacity:1;fill-rule:nonzero;stroke:none"
             id="path122"
             inkscape:connector-curvature="0" /></g><g
                id="g124"
                transform="translate(604.6895,326.5342)"
                style="fill:#a28b64;fill-opacity:1"><path
             d="m 0,0 c 4.351,2.301 8.825,5.371 12.837,9.467 2.451,2.502 9.438,10.238 11.207,25.17 l -2.031,0.646 c 0,0 -4.367,-14.824 -25.546,-25.23 -0.687,1.957 -1.744,4.836 -2.161,5.285 -1.687,1.81 -7.65,-4.852 -7.65,-4.852 l -1.978,-2.382 c -0.803,1.017 -6.165,7.701 -8.447,7.484 -3.801,-0.359 -8.888,-9.656 -7.824,-11.307 0,0 6.324,-10.365 10.157,-10.814 0,0 1.825,-0.26 12.414,3.338 0,0 13.251,-36.075 13.25,-36.075 -2.451,-3.156 -6.596,-2.853 -9.575,-1.218 -12.19,6.685 -25.245,-3.41 -29.83,-14.588 -1.401,-3.416 -2.635,-7.569 -2.899,-11.266 -0.357,-4.99 1.126,-20.179 -0.464,-26.558 l 1.514,0.025 c 0.968,2.605 2.788,9.387 3.635,13.041 2.293,9.893 0.942,21.857 10.154,28.6 2.301,1.683 5.869,3.347 8.752,3.568 1.777,0.137 3.256,-0.029 4.889,-0.619 3.633,-1.311 6.689,-2.846 10.73,-2.664 3.033,0.136 5.931,0.789 7.482,2.863 2.856,3.818 5.346,9.361 5.346,9.361 -0.115,1.182 -2.599,7.385 -2.599,7.385 L 0,0 Z"
             style="fill:#a28b64;fill-opacity:1;fill-rule:nonzero;stroke:none"
             id="path126"
             inkscape:connector-curvature="0" /></g></g></g></g></svg>